{
  "images" : [
    {
      "idiom" : "iphone",
      "scale" : "1x"
    },
    {
      "filename" : "licensed-image.jpg",
      "idiom" : "iphone",
      "scale" : "2x"
    },
    {
      "filename" : "licensed-image-1.jpg",
      "idiom" : "iphone",
      "scale" : "3x"
    },
    {
      "filename" : "licensed-image-2.jpg",
      "idiom" : "ipad",
      "scale" : "1x"
    },
    {
      "filename" : "licensed-image-3.jpg",
      "idiom" : "ipad",
      "scale" : "2x"
    }
  ],
  "info" : {
    "author" : "xcode",
    "version" : 1
  }
}
